<?xml version="1.0" encoding="UTF-8"?>
<session version="1.0">
<refactoring accessors="true" comment="Delete element from project &apos;Esercizi&apos;&#x0A;- Original project: &apos;Esercizi&apos;&#x0A;- Original element: &apos;Esercizi/src/es34p231&apos;" description="Delete element" element1="/src&lt;es34p231" elements="1" flags="589830" id="org.eclipse.jdt.ui.delete" resources="0" stamp="1472132686079" subPackages="false" version="1.0"/>
</session>